{
  "E-web": "MediaMart" ,
  "domain": "https://mediamart.vn/" ,
  "search_param": "tim-kiem?kw=" ,
  "category": [
    "https://mediamart.vn/may-lam-toi-den/",
    "https://mediamart.vn/amply/",
    "https://mediamart.vn/phu-kien-dtdd/",
    "https://mediamart.vn/the-nho/",
    "https://mediamart.vn/may-anh-du-lich/",
    "https://mediamart.vn/pin-sacduphong/",
    "https://mediamart.vn/may-pha-ca-phe/",
    "https://mediamart.vn/am-dun-binh-sieu-toc/",
    "https://mediamart.vn/truyen-hinh-so/",
    "https://mediamart.vn/bo-noi/",
    "https://mediamart.vn/may-xay-thit/",
    "https://mediamart.vn/kinh-3d/",
    "https://mediamart.vn/lo-nuong/",
    "https://mediamart.vn/cap-noi/",
    "https://mediamart.vn/ong-kinh/",
    "https://mediamart.vn/may-xay-sinh-to/",
    "https://mediamart.vn/bo-dam/",
    "https://mediamart.vn/valy-balo-tui/",
    "https://mediamart.vn/dieu-hoa-tu-dung/",
    "https://mediamart.vn/dieu-hoa-ap-tran/",
    "https://mediamart.vn/noi-com-dien/",
    "https://mediamart.vn/de-tan-nhiet/",
    "https://mediamart.vn/thiet-bi-mang/",
    "https://mediamart.vn/noi-lau-dien/",
    "https://mediamart.vn/dieukhien-tv/",
    "https://mediamart.vn/soundbar/",
    "https://mediamart.vn/may-hut-am/",
    "https://mediamart.vn/webcam/",
    "https://mediamart.vn/gia-treo/",
    "https://mediamart.vn/may-photocopy/",
    "https://mediamart.vn/ky-thuat-so/",
    "https://mediamart.vn/noithat/",
    "https://mediamart.vn/quat-dieu-hoa/",
    "https://mediamart.vn/may-in/",
    "https://mediamart.vn/dan-am-thanh/",
    "https://mediamart.vn/may-danh-trung/",
    "https://mediamart.vn/loabluetooth/",
    "https://mediamart.vn/may-loc-khong-khi/",
    "https://mediamart.vn/dai-casette/",
    "https://mediamart.vn/noithat-ke-tivi/",
    "https://mediamart.vn/thiet-bi-choi-game/",
    "https://mediamart.vn/usb-wifi/",
    "https://mediamart.vn/may-phat-dien/",
    "https://mediamart.vn/karaoke/",
    "https://mediamart.vn/thenho-dienthoai/",
    "https://mediamart.vn/dieu-hoa-nhiet-do/",
    "https://mediamart.vn/tong-dai-dien-thoai/",
    "https://mediamart.vn/dien-thoai-ban-keo-dai/",
    "https://mediamart.vn/dieu-hoa-vrv/",
    "https://mediamart.vn/dien-thoai-ip/",
    "https://mediamart.vn/binh-thuy-dien/",
    "https://mediamart.vn/may-dem-tien/",
    "https://mediamart.vn/binh-giu-nhiet/",
    "https://mediamart.vn/usb-flash/",
    "https://mediamart.vn/phu-kien-may-in/",
    "https://mediamart.vn/sac-capnoi/",
    "https://mediamart.vn/tu-lam-mat/",
    "https://mediamart.vn/tu-ruou/",
    "https://mediamart.vn/may-huy-tai-lieu/",
    "https://mediamart.vn/chao/",
    "https://mediamart.vn/loamaytinh/",
    "https://mediamart.vn/on-ap/",
    "https://mediamart.vn/chan-de-may-giat/",
    "https://mediamart.vn/lo-vi-song/",
    "https://mediamart.vn/server/",
    "https://mediamart.vn/anten/",
    "https://mediamart.vn/chan-may-anh/",
    "https://mediamart.vn/may-giat-cam-tay/",
    "https://mediamart.vn/tivi-box/",
    "https://mediamart.vn/pc-dongbo/",
    "https://mediamart.vn/bep-ga/",
    "https://mediamart.vn/may-say-toc/",
    "https://mediamart.vn/bo-chuyen-doi/",
    "https://mediamart.vn/tin-hoc/",
    "https://mediamart.vn/pk-o-cam/",
    "https://mediamart.vn/may-tinh-bang/",
    "https://mediamart.vn/dau-phat-hd/",
    "https://mediamart.vn/noi-chien-khong-dau/",
    "https://mediamart.vn/tu-lanh/",
    "https://mediamart.vn/may-chieu/",
    "https://mediamart.vn/noi-ham/",
    "https://mediamart.vn/quat-mini-usb/",
    "https://mediamart.vn/may-quay-phim/",
    "https://mediamart.vn/may-say-kho-quan-ao/",
    "https://mediamart.vn/may-tinh-de-ban/",
    "https://mediamart.vn/hdd-gan-ngoai/",
    "https://mediamart.vn/binh-tam-nong-lanh/",
    "https://mediamart.vn/phu-kien-dien-tu/",
    "https://mediamart.vn/tu-dong/",
    "https://mediamart.vn/anti-mosquito/",
    "https://mediamart.vn/laptop/",
    "https://mediamart.vn/gia-dung/",
    "https://mediamart.vn/may-scan/",
    "https://mediamart.vn/thiet-bi-an-ninh/",
    "https://mediamart.vn/dieu-hoa-multi/",
    "https://mediamart.vn/cable/",
    "https://mediamart.vn/bo-luu-dien-ups/",
    "https://mediamart.vn/may-lam-sua-dau-nanh/",
    "https://mediamart.vn/may-nghe-nhac/",
    "https://mediamart.vn/phan-mem/",
    "https://mediamart.vn/may-tinh-cam-tay/",
    "https://mediamart.vn/may-rua-bat/",
    "https://mediamart.vn/pkmobile-khac/",
    "https://mediamart.vn/ban-la/",
    "https://mediamart.vn/chuot/",
    "https://mediamart.vn/may-say-bat-dia/",
    "https://mediamart.vn/ssd-gan-trong/",
    "https://mediamart.vn/may-ep-vat-trai-cay/",
    "https://mediamart.vn/cay-nuoc-nong-lanh/",
    "https://mediamart.vn/may-say-quan-ao/",
    "https://mediamart.vn/dau-dia/",
    "https://mediamart.vn/pk-denban/",
    "https://mediamart.vn/dung-cu-gia-dinh/",
    "https://mediamart.vn/tivi/",
    "https://mediamart.vn/pc-mini/",
    "https://mediamart.vn/pin-sac/",
    "https://mediamart.vn/smartphones/",
    "https://mediamart.vn/ram/",
    "https://mediamart.vn/man-hinh-may-tinh/",
    "https://mediamart.vn/may-cham-cong/",
    "https://mediamart.vn/may-hut-khoi-hut-mui/",
    "https://mediamart.vn/may-giat/",
    "https://mediamart.vn/noi-ap-suat/",
    "https://mediamart.vn/tui-camera/",
    "https://mediamart.vn/am-thanh-tro-giang/",
    "https://mediamart.vn/may-hut-bui/",
    "https://mediamart.vn/dien-thoai-di-dong-thuong/",
    "https://mediamart.vn/may-loc-nuoc/",
    "https://mediamart.vn/may-ghi-am/",
    "https://mediamart.vn/man-chieu/",
    "https://mediamart.vn/ban-phim/",
    "https://mediamart.vn/dieu-hoa-am-tran/",
    "https://mediamart.vn/smartwatch/",
    "https://mediamart.vn/mic-karaoke/",
    "https://mediamart.vn/ket-sat/",
    "https://mediamart.vn/quat/",
    "https://mediamart.vn/can-suc-khoe/",
    "https://mediamart.vn/micro/",
    "https://mediamart.vn/bep-nuong/",
    "https://mediamart.vn/nhom-phu-kien/",
    "https://mediamart.vn/may-tao-am/",
    "https://mediamart.vn/may-fax/",
    "https://mediamart.vn/phu-kien-cong-nghe/",
    "https://mediamart.vn/baove-dt/",
    "https://mediamart.vn/may-xay-nau/"
  ],
  "max_paging": "" ,
  "products_title": "//h1/span//text()" ,
  "products_image": "//div[@class='item']/img/@src" ,
  "products_price": "/html/body/div[3]/div[3]/div[1]/div/div[3]/div[1]/ul[1]/li/div/@content" ,
  "products_description": "div[class='pdtl-des'] p" ,
  "products_model": "/html/body/div[3]/div[3]/div[1]/div/div[3]/div[1]/ul[2]/li[1]/span//text()" ,
  "products_id": "/html/body/div[3]/div[3]/div[1]/div/div[3]/div[1]/ul[2]/li[3]/span//text()",
  "products_specifications_key": "div[class='pd-atv-col-l']" ,
  "products_specifications_value": "div[class='pd-atv-col-r']",
  "products_links": "p.pl18-item-name",
  "products_producer": "html body div.wrap div.w-path div.w-path-l ul.l li:last-child"
}